            __                   .___              __   
    _______/  |______ _______  __| _/_ __  _______/  |_ 
   /  ___/\   __\__  \\_  __ \/ __ |  |  \/  ___/\   __\
   \___ \  |  |  / __ \|  | \/ /_/ |  |  /\___ \  |  |  
  /____  > |__| (____  /__|  \____ |____//____  > |__|  
       \/            \/           \/          \/        

